<svg width="21" height="21" viewBox="0 0 21 21" fill="none" xmlns="http://www.w3.org/2000/svg">
<path fill-rule="evenodd" clip-rule="evenodd" d="M2.62109 1.70806C2.62109 1.15467 3.07165 0.702221 3.62159 0.763952C6.68953 1.10833 9.95835 2.93672 10.0847 5.4647L10.0885 14.5122C10.0889 15.5567 8.35981 16.0989 7.54033 15.4512C6.09508 14.3088 4.56167 13.8104 3.44033 13.5543C2.9682 13.4464 2.62109 13.0373 2.62109 12.553V1.70806Z" fill="currentColor"/>
<path fill-rule="evenodd" clip-rule="evenodd" d="M0 4.2799C0 3.7554 0.425196 3.3302 0.949701 3.3302C1.47421 3.3302 1.8994 3.7554 1.8994 4.2799V13.1376C1.8994 13.6579 2.29978 14.0864 2.81052 14.1856C5.25922 14.6608 7.97472 16.2198 9.09513 18.4417C9.45955 19.1644 8.65779 19.7041 7.95013 19.3113C5.6823 18.0524 3.99385 17.4849 1.02397 17.4442C0.463047 17.4365 0 16.9881 0 16.4271V4.2799Z" fill="currentColor"/>
<path fill-rule="evenodd" clip-rule="evenodd" d="M18.3463 0.7052C15.0349 0.714603 11.023 2.65867 10.8827 5.46468L10.8789 14.5122C10.8785 15.5567 12.6076 16.0989 13.4271 15.4511C14.8725 14.3087 16.4061 13.8104 17.5278 13.5542C17.9999 13.4464 18.3471 13.0372 18.3471 12.5529V0.705983C18.3471 0.705551 18.3467 0.7052 18.3463 0.7052Z" fill="currentColor"/>
<path fill-rule="evenodd" clip-rule="evenodd" d="M20.9654 3.32947C20.9654 3.3299 20.965 3.33025 20.9646 3.33025H20.0157C19.4912 3.33025 19.066 3.75545 19.066 4.27995V13.1377C19.066 13.658 18.6656 14.0865 18.1548 14.1856C15.7062 14.6607 12.9907 16.2193 11.8703 18.441C11.5058 19.1637 12.3076 19.7033 13.0152 19.3105C15.2831 18.0517 16.9715 17.4842 19.9414 17.4435C20.5023 17.4358 20.9654 16.9873 20.9654 16.4264V3.32947Z" fill="currentColor"/>
</svg>
