<svg width="24" height="24" viewBox="0 0 24 24" fill="none" xmlns="http://www.w3.org/2000/svg">
<path d="M5.71356 13.5119V10.4879C5.71356 9.0479 6.88956 7.89591 8.30556 7.89591H14.5456V4.0079C14.5456 3.4319 14.0656 2.9519 13.4896 2.9519H1.65756C1.08156 2.9519 0.601562 3.4319 0.601562 4.0079V19.9919C0.601562 20.5679 1.08156 21.0479 1.65756 21.0479H13.5376C14.1136 21.0479 14.5936 20.5679 14.5936 19.9919V16.1039H8.35356C6.88956 16.1039 5.71356 14.9279 5.71356 13.5119Z" fill="currentColor"/>
<path d="M23.1151 11.3998L17.6191 6.95978C17.1151 6.55178 16.3711 6.91178 16.3711 7.55978V9.74377H8.30706C7.87506 9.74377 7.53906 10.0798 7.53906 10.5118V13.5358C7.53906 13.9678 7.87506 14.3038 8.30706 14.3038H16.3711V16.4878C16.3711 17.1358 17.1151 17.4718 17.6191 17.0878L23.1151 12.6238C23.4991 12.2878 23.4991 11.7118 23.1151 11.3998Z" fill="currentColor"/>
</svg>
