<svg width="25" height="24" viewBox="0 0 25 24" fill="none" xmlns="http://www.w3.org/2000/svg">
<path d="M6.73891 14.3999H12.5949C12.9876 13.6309 13.5648 12.9712 14.2749 12.4799H6.73891C6.6116 12.4799 6.48951 12.4293 6.3995 12.3393C6.30948 12.2493 6.25891 12.1272 6.25891 11.9999C6.25891 11.8726 6.30948 11.7505 6.3995 11.6605C6.48951 11.5705 6.6116 11.5199 6.73891 11.5199H14.4189C14.5462 11.5199 14.6683 11.5705 14.7583 11.6605C14.8483 11.7505 14.8989 11.8726 14.8989 11.9999C14.9009 12.0354 14.8977 12.071 14.8893 12.1055C15.461 11.8188 16.0782 11.6336 16.7133 11.5583C16.9072 11.5302 17.103 11.5174 17.2989 11.5199C17.4593 11.5196 17.6196 11.5292 17.7789 11.5487V5.27988C17.7789 4.64336 17.526 4.03291 17.076 3.58283C16.6259 3.13274 16.0154 2.87988 15.3789 2.87988H5.77891C5.14239 2.87988 4.53194 3.13274 4.08185 3.58283C3.63176 4.03291 3.37891 4.64336 3.37891 5.27988V15.8399C3.37891 16.4764 3.63176 17.0869 4.08185 17.5369C4.53194 17.987 5.14239 18.2399 5.77891 18.2399H12.2205C12.1432 17.9599 12.0886 17.6742 12.0573 17.3855C12.0292 17.1916 12.0164 16.9958 12.0189 16.7999C12.0172 16.3127 12.0851 15.8278 12.2205 15.3599H6.73891C6.6116 15.3599 6.48951 15.3093 6.3995 15.2193C6.30948 15.1293 6.25891 15.0072 6.25891 14.8799C6.25891 14.7526 6.30948 14.6305 6.3995 14.5405C6.48951 14.4505 6.6116 14.3999 6.73891 14.3999ZM6.73891 5.75988H14.4189C14.5462 5.75988 14.6683 5.81045 14.7583 5.90047C14.8483 5.99049 14.8989 6.11258 14.8989 6.23988C14.8989 6.36719 14.8483 6.48928 14.7583 6.57929C14.6683 6.66931 14.5462 6.71988 14.4189 6.71988H6.73891C6.6116 6.71988 6.48951 6.66931 6.3995 6.57929C6.30948 6.48928 6.25891 6.36719 6.25891 6.23988C6.25891 6.11258 6.30948 5.99049 6.3995 5.90047C6.48951 5.81045 6.6116 5.75988 6.73891 5.75988ZM6.73891 8.63988H14.4189C14.5462 8.63988 14.6683 8.69045 14.7583 8.78047C14.8483 8.87049 14.8989 8.99258 14.8989 9.11988C14.8989 9.24719 14.8483 9.36928 14.7583 9.4593C14.6683 9.54931 14.5462 9.59988 14.4189 9.59988H6.73891C6.6116 9.59988 6.48951 9.54931 6.3995 9.4593C6.30948 9.36928 6.25891 9.24719 6.25891 9.11988C6.25891 8.99258 6.30948 8.87049 6.3995 8.78047C6.48951 8.69045 6.6116 8.63988 6.73891 8.63988ZM17.7789 12.5087C17.4601 12.4703 17.1378 12.4703 16.8189 12.5087C15.7632 12.6267 14.788 13.1296 14.0797 13.9212C13.3713 14.7128 12.9794 15.7376 12.9789 16.7999C12.9786 16.9603 12.9883 17.1206 13.0077 17.2799C13.0414 17.6078 13.1156 17.9302 13.2285 18.2399C13.4854 18.9677 13.9325 19.6135 14.5235 20.11C15.1144 20.6064 15.8276 20.9355 16.5889 21.063C17.3501 21.1905 18.1316 21.1117 18.8521 20.8348C19.5725 20.5579 20.2056 20.093 20.6856 19.4885C21.1655 18.8841 21.4747 18.162 21.5811 17.3976C21.6874 16.6331 21.587 15.8541 21.2903 15.1416C20.9936 14.429 20.5114 13.809 19.8939 13.346C19.2763 12.883 18.546 12.5938 17.7789 12.5087ZM17.7789 16.7999C17.7789 16.9272 17.7283 17.0493 17.6383 17.1393C17.5483 17.2293 17.4262 17.2799 17.2989 17.2799H15.9069C15.7796 17.2799 15.6575 17.2293 15.5675 17.1393C15.4775 17.0493 15.4269 16.9272 15.4269 16.7999C15.4269 16.6726 15.4775 16.5505 15.5675 16.4605C15.6575 16.3705 15.7796 16.3199 15.9069 16.3199H16.8189V14.8799C16.8189 14.7526 16.8695 14.6305 16.9595 14.5405C17.0495 14.4505 17.1716 14.3999 17.2989 14.3999C17.4262 14.3999 17.5483 14.4505 17.6383 14.5405C17.7283 14.6305 17.7789 14.7526 17.7789 14.8799V16.7999Z" fill="currentColor"/>
</svg>
