<svg width="16" height="17" viewBox="0 0 16 17" fill="none" xmlns="http://www.w3.org/2000/svg">
<path d="M1.71429 6.0552L7.80229 9.22148C7.86335 9.25324 7.93117 9.26981 8 9.26981C8.06883 9.26981 8.13665 9.25324 8.19771 9.22148L14.2857 6.05577V11.5558C14.2857 12.0301 14.1043 12.4865 13.7785 12.8313C13.4527 13.1761 13.0073 13.3832 12.5337 13.4101L12.4286 13.4129H3.57143C3.09707 13.4129 2.64067 13.2315 2.29587 12.9057C1.95107 12.5799 1.744 12.1345 1.71714 11.6609L1.71429 11.5558V6.0552ZM3.57143 3.1272H12.4286C12.9029 3.12717 13.3593 3.30866 13.7041 3.63444C14.0489 3.96022 14.256 4.40559 14.2829 4.8792L14.2857 4.98434V5.08948L8 8.35805L1.71429 5.08948V4.98434C1.71426 4.50998 1.89575 4.05358 2.22153 3.70878C2.54731 3.36398 2.99268 3.15691 3.46629 3.13005L3.57143 3.1272H12.4286H3.57143Z" fill="currentColor"/>
</svg>
