<svg width="77" height="77" viewBox="0 0 77 77" fill="none" xmlns="http://www.w3.org/2000/svg">
<g clip-path="url(#clip0_63:11247)">
<path d="M68.4057 29.9049C68.4057 53.8509 41.3728 76.0282 41.3728 76.0282C39.7932 77.3241 37.2082 77.3241 35.6286 76.0282C35.6286 76.0282 8.5957 53.8509 8.5957 29.9049C8.596 13.3889 21.9849 0 38.5008 0C55.0167 0 68.4057 13.3889 68.4057 29.9049Z" fill="currentColor"/>
<path d="M38.5003 44.9503C30.2042 44.9503 23.4551 38.2009 23.4551 29.9051C23.4551 21.6092 30.2045 14.8595 38.5003 14.8595C46.7962 14.8595 53.5456 21.6089 53.5456 29.9048C53.5456 38.2006 46.7965 44.9503 38.5003 44.9503Z" fill="white"/>
</g>
<defs>
<clipPath id="clip0_63:11247">
<rect width="77" height="77" fill="white"/>
</clipPath>
</defs>
</svg>
