<svg width="19" height="17" viewBox="0 0 19 17" fill="none" xmlns="http://www.w3.org/2000/svg">
<path d="M18.7856 1.2038L15.9277 15.6124C15.9277 15.6124 15.5281 16.6117 14.4289 16.132L7.83418 11.076L5.43618 9.91705L1.39943 8.55805C1.39943 8.55805 0.779929 8.3383 0.719929 7.85868C0.659929 7.37905 1.41943 7.1193 1.41943 7.1193L17.4664 0.824304C17.4664 0.824304 18.7854 0.244805 18.7854 1.20405" fill="white"/>
<path d="M7.32728 15.4504C7.32728 15.4504 7.13478 15.4324 6.89478 14.6729C6.65516 13.9135 5.43604 9.91678 5.43604 9.91678L15.1283 3.76178C15.1283 3.76178 15.6879 3.42203 15.6679 3.76178C15.6679 3.76178 15.7678 3.82178 15.4679 4.10153C15.1683 4.3814 7.85416 10.956 7.85416 10.956" fill="#D2E5F1"/>
<path d="M10.3628 13.0145L7.75439 15.3927C7.75439 15.3927 7.55039 15.5475 7.32739 15.4505L7.82689 11.033" fill="#B5CFE4"/>
</svg>
