<svg width="20" height="21" viewBox="0 0 20 21" fill="none" xmlns="http://www.w3.org/2000/svg">
<path d="M16.5 2.27002H3.5C2.675 2.27002 2 2.94502 2 3.77002V16.77C2 17.595 2.675 18.27 3.5 18.27H16.5C17.325 18.27 18 17.595 18 16.77V3.77002C18 2.94502 17.325 2.27002 16.5 2.27002ZM14.959 13.47L13.496 13.492C13.496 13.492 13.18 13.555 12.768 13.27C12.221 12.895 11.705 11.917 11.302 12.045C10.896 12.173 10.908 13.051 10.908 13.051C10.908 13.051 10.911 13.239 10.817 13.338C10.717 13.447 10.517 13.469 10.517 13.469H9.864C9.864 13.469 8.42 13.557 7.148 12.231C5.76 10.787 4.536 7.92202 4.536 7.92202C4.536 7.92202 4.464 7.73402 4.542 7.64402C4.629 7.54102 4.864 7.53502 4.864 7.53502L6.43 7.52602C6.43 7.52602 6.577 7.55102 6.683 7.62902C6.771 7.69202 6.817 7.81302 6.817 7.81302C6.817 7.81302 7.07 8.45402 7.405 9.03202C8.058 10.16 8.364 10.407 8.586 10.288C8.908 10.113 8.811 8.69102 8.811 8.69102C8.811 8.69102 8.817 8.17502 8.649 7.94702C8.518 7.76902 8.271 7.71602 8.165 7.70302C8.077 7.69002 8.221 7.48702 8.409 7.39402C8.69 7.25602 9.187 7.24702 9.775 7.25302C10.231 7.25602 10.366 7.28702 10.544 7.32802C11.085 7.45902 10.9 7.96202 10.9 9.16902C10.9 9.55702 10.831 10.1 11.109 10.278C11.228 10.356 11.521 10.29 12.256 9.04402C12.603 8.45302 12.865 7.76002 12.865 7.76002C12.865 7.76002 12.921 7.63502 13.009 7.58202C13.1 7.52902 13.222 7.54502 13.222 7.54502L14.869 7.53602C14.869 7.53602 15.363 7.47702 15.444 7.70202C15.528 7.93602 15.26 8.48302 14.588 9.38002C13.485 10.852 13.36 10.714 14.279 11.564C15.154 12.377 15.335 12.773 15.367 12.823C15.723 13.423 14.961 13.47 14.961 13.47H14.959Z" fill="#2F80ED"/>
</svg>
